5k pbmc dataset
…
# a tibble with a list column
fullsample_idents

# A tibble: 200 x 4
   pc    resolution k_param original_ident_full
   <chr> <chr>      <chr>   <list>             
 1 10    0.5        8       <fct [4,595]>      
 2 15    0.5        8       <fct [4,595]>      
 3 20    0.5        8       <fct [4,595]>      
 4 30    0.5        8       <fct [4,595]>      
 5 35    0.5        8       <fct [4,595]>      
 6 10    0.6        8       <fct [4,595]>      
 7 15    0.6        8       <fct [4,595]>      
 8 20    0.6        8       <fct [4,595]>      
 9 30    0.6        8       <fct [4,595]>      
10 35    0.6        8       <fct [4,595]>      
# … with 190 more rows

## how many clusters for each different comibination of parameter set?
fullsample_idents %>%
  mutate(cluster_num = purrr::map_dbl(original_ident_full, ~length(unique(.x))))

# A tibble: 200 x 5
   pc    resolution k_param original_ident_full cluster_num
   <chr> <chr>      <chr>   <list>                    <dbl>
 1 10    0.5        8       <fct [4,595]>                13
 2 15    0.5        8       <fct [4,595]>                15
 3 20    0.5        8       <fct [4,595]>                16
 4 30    0.5        8       <fct [4,595]>                14
 5 35    0.5        8       <fct [4,595]>                14
 6 10    0.6        8       <fct [4,595]>                17
 7 15    0.6        8       <fct [4,595]>                17
 8 20    0.6        8       <fct [4,595]>                16
 9 30    0.6        8       <fct [4,595]>                15
10 35    0.6        8       <fct [4,595]>                14
# … with 190 more rows
…
subsample_idents_list %>% ungroup() %>% mutate(id = row_number()) %>%
  filter(pc == 20, resolution == 0.6, k_param == 20)

# A tibble: 1 x 5
  pc    resolution k_param data                  id
  <chr> <chr>      <chr>   <list>             <int>
1 20    0.6        20      <tibble [100 × 3]>    83

## subsample for 100 times(rounds)
subsample_idents_list$data[[8]]

# A tibble: 100 x 3
   original_ident recluster_ident round
   <list>         <list>          <chr>
 1 <fct [3,676]>  <fct [3,676]>   0    
 2 <fct [3,676]>  <fct [3,676]>   1    
 3 <fct [3,676]>  <fct [3,676]>   2    
 4 <fct [3,676]>  <fct [3,676]>   3    
 5 <fct [3,676]>  <fct [3,676]>   4    
 6 <fct [3,676]>  <fct [3,676]>   5    
 7 <fct [3,676]>  <fct [3,676]>   6    
 8 <fct [3,676]>  <fct [3,676]>   7    
 9 <fct [3,676]>  <fct [3,676]>   8    
10 <fct [3,676]>  <fct [3,676]>   9    
# … with 90 more rows
…
Assign stable clusters

As a rule of thumb, clusters with a mean/median stability score less than 0.6 should be considered unstable. scores between 0.6 and 0.75 indicate that the cluster is measuring a pattern in the data. clusters with stability score greater than 0.85 are highly stable (Zumel and Mount 2014). This task can be achieved using AssignStableCluster function in our R package. We observed for some datasets, the jaccard index follows a bimodal distribution, so the mean or median may not be representative. As an alternative, we also calculate the percentage of subsampling with a jaccard greater than a cutoff (e.g. 0.85), which can be used to check stability assessments.

## return a list
## ?AssignStableCluster
AssignStableCluster(subsample_idents_list$data[[55]]$original_ident,
                    subsample_idents_list$data[[55]]$recluster_ident,
                    jaccard_cutoff = 0.8,
                    method = "jaccard_percent", 
                    percent_cutoff = 0.8)

$jaccardIndex
# A tibble: 100 x 17
     `0`   `1`   `2`   `3`   `4`   `5`   `6`   `7`   `8`   `9`  `10`  `11`
   <dbl> <dbl> <dbl> <dbl> <dbl> <dbl> <dbl> <dbl> <dbl> <dbl> <dbl> <dbl>
 1 0.955 0.959 0.826 0.913 0.995 0.660 0.871 0.929 0.825 0.667 0.776 0.8  
 2 0.952 0.993 0.928 0.938 0.990 0.678 0.561 0.95  0.427 0.774 0.966 0.819
 3 0.945 0.971 0.854 0.947 0.985 0.683 0.917 0.959 0.736 0.574 0.851 0.122
 4 0.959 0.992 0.916 0.937 0.995 0.699 0.497 0.956 0.395 0.8   0.966 0.772
 5 0.975 0.990 0.953 0.978 0.981 0.660 0.540 0.963 0.455 0.883 0.980 0.970
 6 0.931 0.958 0.943 0.949 0.995 0.661 0.910 0.954 0.777 0.517 0.731 0.890
 7 0.963 0.978 0.938 0.973 0.991 0.645 0.484 0.964 0.394 0.862 0.885 0.756
 8 0.979 0.988 0.950 0.963 0.990 0.687 0.504 0.967 0.397 0.931 0.962 0.919
 9 0.966 0.989 0.931 0.959 0.986 0.675 0.556 0.967 0.437 0.902 0.967 0.972
10 0.931 0.989 0.935 0.975 0.990 0.683 1     0.951 0.810 0.486 1     0.933
# … with 90 more rows, and 5 more variables: `12` <dbl>, `13` <dbl>,
#   `14` <dbl>, `15` <dbl>, `16` <dbl>
…
