mixture control dataset
…
# a tibble with a list column
fullsample_idents

# A tibble: 210 x 4
   pc    resolution k_param original_ident_full
   <chr> <chr>      <chr>   <list>             
 1 3     0.001      10      <fct [3,918]>      
 2 5     0.001      10      <fct [3,918]>      
 3 7     0.001      10      <fct [3,918]>      
 4 10    0.001      10      <fct [3,918]>      
 5 15    0.001      10      <fct [3,918]>      
 6 3     0.005      10      <fct [3,918]>      
 7 5     0.005      10      <fct [3,918]>      
 8 7     0.005      10      <fct [3,918]>      
 9 10    0.005      10      <fct [3,918]>      
10 15    0.005      10      <fct [3,918]>      
# … with 200 more rows
…
From the jaccard heatmap we know that: cluster 4 split (res = 0.05) into cluster 4 and cluster 6 (res = 0.1) cluster 0 split (res = 0.05) into cluster 0 and 5 (res = 0.1)

cluster 0 and cluster 5 have on average smaller silhouette score than the original cluster 0, suggesting that it is not a good idea to split A549 cells.

cluster 4 and 6 seems to have a higher silhouette score than the orignal cluster 4, suggesting that H1975 cells can be future split into two subclusters. From the UMAP plot, it does suggest cluster 4 and 6 are seperated.

explore the subsampled data

# a tibble with two list columns, note that the ident number is 80% of the full dataset
subsample_idents

# A tibble: 21,000 x 6
   pc    resolution k_param original_ident recluster_ident round
   <chr> <chr>      <chr>   <list>         <list>          <chr>
 1 3     0.001      10      <fct [3,134]>  <fct [3,134]>   0    
 2 3     0.001      10      <fct [3,134]>  <fct [3,134]>   1    
 3 3     0.001      10      <fct [3,134]>  <fct [3,134]>   2    
 4 3     0.001      10      <fct [3,134]>  <fct [3,134]>   3    
 5 3     0.001      10      <fct [3,134]>  <fct [3,134]>   4    
 6 3     0.001      10      <fct [3,134]>  <fct [3,134]>   5    
 7 3     0.001      10      <fct [3,134]>  <fct [3,134]>   6    
 8 3     0.001      10      <fct [3,134]>  <fct [3,134]>   7    
 9 3     0.001      10      <fct [3,134]>  <fct [3,134]>   8    
10 3     0.001      10      <fct [3,134]>  <fct [3,134]>   9    
# … with 20,990 more rows

## check for one of the subsample experiment, the cell identities 
## should be the same before and after clustering, but the cluster identities 
## should be different

subsample_idents %>% mutate(id = row_number()) %>%
  filter(pc == 15, resolution == 0.05, k_param == 20)

# A tibble: 100 x 7
   pc    resolution k_param original_ident recluster_ident round    id
   <chr> <chr>      <chr>   <list>         <list>          <chr> <int>
 1 15    0.05       20      <fct [3,134]>  <fct [3,134]>   0      5401
 2 15    0.05       20      <fct [3,134]>  <fct [3,134]>   1      5402
 3 15    0.05       20      <fct [3,134]>  <fct [3,134]>   2      5403
 4 15    0.05       20      <fct [3,134]>  <fct [3,134]>   3      5404
 5 15    0.05       20      <fct [3,134]>  <fct [3,134]>   4      5405
 6 15    0.05       20      <fct [3,134]>  <fct [3,134]>   5      5406
 7 15    0.05       20      <fct [3,134]>  <fct [3,134]>   6      5407
 8 15    0.05       20      <fct [3,134]>  <fct [3,134]>   7      5408
 9 15    0.05       20      <fct [3,134]>  <fct [3,134]>   8      5409
10 15    0.05       20      <fct [3,134]>  <fct [3,134]>   9      5410
# … with 90 more rows
…
subsample_idents_list<- subsample_idents %>% 
  group_by(pc, resolution, k_param) %>% 
  nest()

subsample_idents_list %>% ungroup() %>% mutate(id = row_number()) %>%
  filter(pc == 15, resolution == 0.05, k_param == 20)

# A tibble: 1 x 5
  pc    resolution k_param data                  id
  <chr> <chr>      <chr>   <list>             <int>
1 15    0.05       20      <tibble [100 × 3]>    55

subsample_idents_list$data[[55]]

# A tibble: 100 x 3
   original_ident recluster_ident round
   <list>         <list>          <chr>
 1 <fct [3,134]>  <fct [3,134]>   0    
 2 <fct [3,134]>  <fct [3,134]>   1    
 3 <fct [3,134]>  <fct [3,134]>   2    
 4 <fct [3,134]>  <fct [3,134]>   3    
 5 <fct [3,134]>  <fct [3,134]>   4    
 6 <fct [3,134]>  <fct [3,134]>   5    
 7 <fct [3,134]>  <fct [3,134]>   6    
 8 <fct [3,134]>  <fct [3,134]>   7    
 9 <fct [3,134]>  <fct [3,134]>   8    
10 <fct [3,134]>  <fct [3,134]>   9    
# … with 90 more rows

## for the n times repeating, matching the clusters before and after reclustering
## and assign the jaccard for that cluster
AssignHighestJaccard(subsample_idents_list$data[[55]]$original_ident, 
                     subsample_idents_list$data[[55]]$recluster_ident)

# A tibble: 100 x 5
     `0`   `1`   `2`   `3`   `4`
   <dbl> <dbl> <dbl> <dbl> <dbl>
 1 0.998 0.994     1 0.993 0.997
 2 1     0.999     1 0.998 1    
 3 0.999 1         1 0.998 1    
 4 0.997 0.994     1 0.989 1    
 5 0.998 0.997     1 0.996 1    
 6 0.999 0.999     1 1     1    
 7 0.999 1         1 0.998 1    
 8 0.998 0.997     1 0.992 1    
 9 0.999 1         1 0.998 1    
10 0.999 1         1 0.998 1    
# … with 90 more rows
…
Assign stable clusters

As a rule of thumb, clusters with a mean/median stability score less than 0.6 should be considered unstable. scores between 0.6 and 0.75 indicate that the cluster is measuring a pattern in the data. clusters with stability score greater than 0.85 are highly stable (Zumel and Mount 2014). This task can be achieved using AssignStableCluster function in our R package. We observed for some datasets, the jaccard index follows a bimodal distribution, so the mean or median may not be representative. As an alternative, we also calculate the percentage of subsampling with a jaccard greater than a cutoff (e.g. 0.85), which can be used to check stability assessments.

## for one set of parameter: k=8, res=0.6, pc = 20
## return a list
AssignStableCluster(subsample_idents_list$data[[55]]$original_ident,
                    subsample_idents_list$data[[55]]$recluster_ident,
                    jaccard_cutoff = 0.8,
                    method = "jaccard_percent", 
                    percent_cutoff = 0.8)

$jaccardIndex
# A tibble: 100 x 5
     `0`   `1`   `2`   `3`   `4`
   <dbl> <dbl> <dbl> <dbl> <dbl>
 1 0.998 0.994     1 0.993 0.997
 2 1     0.999     1 0.998 1    
 3 0.999 1         1 0.998 1    
 4 0.997 0.994     1 0.989 1    
 5 0.998 0.997     1 0.996 1    
 6 0.999 0.999     1 1     1    
 7 0.999 1         1 0.998 1    
 8 0.998 0.997     1 0.992 1    
 9 0.999 1         1 0.998 1    
10 0.999 1         1 0.998 1    
# … with 90 more rows
…
